{
    "ImageIO.framework": 1,
    "CoreLocation.framework": 1,
    "AVFoundation.framework": 2,
    "QuartzCore.framework": 2,
    "WebKit.framework": 1,
    "Accelerate.framework": 1,
    "Security.framework": 1,
    "Photos.framework": 1,
    "SystemConfiguration.framework": 2,
    "CoreTelephony.framework": 1
}