<svg xmlns="http://www.w3.org/2000/svg" width="1024" height="1024" viewBox="0 0 1024 1024">
  <defs>
    <style>
      .cls-1 {
        fill: #003a54;
      }

      .cls-1, .cls-2, .cls-4, .cls-5 {
        fill-rule: evenodd;
      }

      .cls-2 {
        fill: #b21117;
        stroke: #f0d844;
        stroke-linejoin: round;
        stroke-width: 6px;
      }

      .cls-3 {
        opacity: 0.68;
      }

      .cls-4 {
        fill: #d0745a;
      }

      .cls-5 {
        fill: #1e809b;
      }
    </style>
  </defs>
  <path id="Color_Fill_6" data-name="Color Fill 6" class="cls-1" d="M364.851,567.263s27.03,212.2,169.85,222.66c0,0,87.77,22.425,160.91-129.143l31.288-8.906S685.482,830.642,516.822,856.722c0,0-210.718,19.859-254.774-289.459h102.8Z"/>
  <path class="cls-2" d="M487.689,342.206c273.7-41.51,505.1-12.842,516.841,64.032S803.921,579.081,530.223,620.591,25.128,633.433,13.383,556.559,213.991,383.716,487.689,342.206Zm-4.465,42.82C695,353.517,872.13,364.3,878.846,409.112S719.327,515.792,507.547,547.3s-388.906,20.726-395.622-24.086S271.445,416.535,483.224,385.026Z"/>
  <path id="Color_Fill_5" data-name="Color Fill 5" class="cls-1" d="M561.519,527.184l160.91-44.533S703.882,217.767,548.11,219.912c0,0-199.153,2.314-183.259,347.351h-102.8S224.6,198.129,490,153.113c0,0,240.25-37.461,259.244,333.992L565.989,531.637Z"/>
  <g id="red" class="cls-3">
    <path id="Color_Fill_10" data-name="Color Fill 10" class="cls-4" d="M135.956,458.2S38.73,521.334,59.97,551.716c0,0-6.4,93.647,438.034,48.985,0,0-402.689,72.857-464.852-44.532C33.152,556.169,12.657,504.73,135.956,458.2Z"/>
    <path id="Color_Fill_9" data-name="Color Fill 9" class="cls-4" d="M780.066,349.961S1060.92,366.373,936.507,470.2c0,0,65.8-17.5,49.167-71.251C985.674,398.947,967.638,337.248,780.066,349.961Z"/>
  </g>
  <g id="blue">
    <path id="Color_Fill_7" data-name="Color Fill 7" class="cls-5" d="M279.926,491.558S303.4,200.237,498.943,184.286c0,0,69.767-10.812,160.91,71.251,0,0-60.857-97.036-165.38-93.517C494.473,162.02,296.769,171.33,279.926,491.558Z"/>
    <path id="Color_Fill_8" data-name="Color Fill 8" class="cls-5" d="M365.791,783.47S441.166,831.83,517.761,828c0,0,82.3,6.191,165.38-102.424C573.3,930.06,382.372,809.966,365.791,783.47Z"/>
  </g>
</svg>
