<svg xmlns="http://www.w3.org/2000/svg" width="300" height="474" viewBox="0 0 300 474">
  <defs>
    <style>
      .cls-1 {
        fill-rule: evenodd;
      }
    </style>
  </defs>
  <path class="cls-1" d="M229.212,27.644C215.262,11.97,193.508,2.98,169.527,2.98,126.7,2.98,88.417,32.2,84.185,68.151a56.915,56.915,0,0,0,14.38,44.921c13.726,15.387,35.286,24.211,59.158,24.211,43.938,0,81.658-28.628,85.873-65.133C245.5,56.007,240.388,40.2,229.212,27.644ZM209.249,68.15c-2.163,18.746-25.761,34.581-51.529,34.581-13.813,0-26.278-4.727-33.342-12.649a22.2,22.2,0,0,1-5.847-17.935c2.171-18.441,26-34.618,51-34.618,13.909,0,26.561,4.888,33.847,13.072A22.171,22.171,0,0,1,209.249,68.15Zm3.624,327.929c-4.322-2.9-14.438-9.676-6.272-56.74,0.21-1.027,1.03-4.821,2.3-10.717,2.9-13.434,8.3-38.438,14.162-66.322,0.014-.061.028-0.126,0.039-0.188,5.988-30.135,1.248-56.5-13.7-76.238-13.493-17.822-34.857-28.748-60.151-30.761-37.4-2.99-76.533,19.314-88.52,41.269-5.542,9.728-2.888,17.628-.8,21.492,2.589,4.78,6.365,7.459,9.124,9.415,4.25,3.014,14.2,10.069,4.751,57.035C72.927,288.619,59.743,355.6,58,365.105c-0.013.063-.023,0.128-0.035,0.191-5.194,30.28-.058,56.743,15.69,75.853,25.358,30.772,63.956,29.3,65.467,29.3,35.973,0,71.933-22.327,82.881-43.69,5.286-9.87,2.43-17.7.235-21.5C219.529,400.54,215.681,397.96,212.873,396.078ZM189.2,255.3c-5.837,27.752-11.212,52.655-14.1,66.041-1.966,9.1-2.363,10.949-2.5,11.707-0.01.06-.023,0.122-0.033,0.185-8.779,50.416.106,72.481,12.681,84.825a68.017,68.017,0,0,1-13.968,9.374c-11.458,5.907-24.15,8.961-34.838,8.4-15.57-.831-27.939-6.444-35.761-16.235-9.11-11.4-12.1-28.12-8.647-48.357,1.88-10.232,15.082-77.226,15.637-79.892,0.009-.059.022-0.115,0.035-0.174,10.1-50.169,1.792-72.458-10.454-85.127a67.977,67.977,0,0,1,14.21-9c11.609-5.6,24.385-8.327,35.048-7.481,15.544,1.237,27.757,7.172,35.322,17.164C190.637,218.353,193.187,235.15,189.2,255.3Z"/>
</svg>
