<?xml version="1.0" encoding="utf-8"?>
<!-- Generator: Adobe Illustrator 23.0.3, SVG Export Plug-In . SVG Version: 6.00 Build 0)  -->
<svg version="1.1" id="Layer_1" xmlns="http://www.w3.org/2000/svg" xmlns:xlink="http://www.w3.org/1999/xlink" x="0px" y="0px"
	 viewBox="0 0 480 480" style="enable-background:new 0 0 480 480;" xml:space="preserve">
<style type="text/css">
	.st0{fill:#b31117;}
</style>
<path class="st0" d="M406.6,6.7H73.4c-9.2,0-16.7,7.5-16.7,16.7v433.3c0,6.3,3.6,12.1,9.2,14.9c5.6,2.8,12.4,2.2,17.5-1.6L240,353.6
	L396.6,470c5.1,3.8,11.8,4.4,17.5,1.6c5.6-2.8,9.2-8.6,9.2-14.9V23.4C423.3,14.2,415.8,6.7,406.6,6.7L406.6,6.7z M390,423.5
	l-140-104c-5.9-4.4-14-4.4-19.9,0L90,423.5V40h300L390,423.5z"/>
<rect x="144.7" y="40" class="st0" width="42.2" height="80.5"/>
</svg>
